…
16 pieces have title mising. And 99 have year missing. This is a bit too
high of a number I think for years to be missing? hmm cause the data has
220 obs?

``` r
uoe_art <- read_csv("data/uoe-art.csv", show_col_types = FALSE)

uoe_art %>%
  select(title) %>%
  print(n = 20)
```

    ## # A tibble: 220 × 1
    ##    title                                                   
    ##    <chr>                                                   
    ##  1 Frieze from the Temple of Athena Nike (left slab) (1827)
    ##  2 Untitled (2002)                                         
    ##  3 Man in Black (possibly)                                 
    ##  4 Untitled - Kings and Queens (1969)                      
    ##  5 untitled (1984)                                         
    ##  6 Composition with Sinking Ship and Lightbulb (1986)      
    ##  7 2. (a) Baskerville Serif (1972)                         
    ##  8 Untitled - Portrait of a Nude Female (1972)             
    ##  9 Circus (1950)                                           
    ## 10 Untitled - Abstract Bridge and Ballons (1968)           
    ## 11 Untitled (Unknown)                                      
    ## 12 Seated Female Nude (1939)                               
    ## 13 Seated Nude (1957)                                      
    ## 14 Stretching Male Nude (Circa 1953)                       
    ## 15 Untitled (1969)                                         
    ## 16 Untitled (1955)                                         
    ## 17 Reclining Nude (1968)                                   
    ## 18 Portrait of a Woman (1959)                              
    ## 19 Untitled (Unknown)                                      
    ## 20 South Frieze of the Parthenon Frieze (1836-1837)        
    ## # ℹ 200 more rows
…
# Extract the first 4-digit year from the title
# Then remove the final parentheses from the title
uoe_art <- uoe_art %>%
  mutate(
    year = str_extract(title, "\\d{4}"),
    year = as.numeric(year),
    title = str_remove(title, "\\s*\\([^\\)]*\\)$")
  ) %>%
  select(title, artist, year, link)

uoe_art
```

    ## # A tibble: 220 × 4
    ##    title                                             artist           year link 
    ##    <chr>                                             <chr>           <dbl> <chr>
    ##  1 Frieze from the Temple of Athena Nike (left slab) <NA>             1827 http…
    ##  2 Untitled                                          Gillian Curry    2002 http…
    ##  3 Man in Black                                      Claudia Petret…    NA http…
    ##  4 Untitled - Kings and Queens                       Michael T R B …  1969 http…
    ##  5 untitled                                          David Hosie      1984 http…
    ##  6 Composition with Sinking Ship and Lightbulb       David Hosie      1986 http…
    ##  7 2. (a) Baskerville Serif                          Anthony Benjam…  1972 http…
    ##  8 Untitled - Portrait of a Nude Female              Lindsay R S Go…  1972 http…
    ##  9 Circus                                            Cecile E M Joh…  1950 http…
    ## 10 Untitled - Abstract Bridge and Ballons            Alastair Burns   1968 http…
    ## # ℹ 210 more rows
…
So, since the early years appear to match the artwork titles and do not
look like mistakes, I did not change them. If one of the years had been
incorrect, I would use `mutate()` with `if_else()` to replace the wrong
year with the corrected year.

### Exercise 14

``` r
uoe_art %>%
  count(artist, sort = TRUE)
```

    ## # A tibble: 156 × 2
    ##    artist                 n
    ##    <chr>              <int>
    ##  1 <NA>                  16
    ##  2 Unknown               12
    ##  3 Ann F Ward             4
    ##  4 Boris Bućan            4
    ##  5 Kirkland Main          4
    ##  6 Emma Gillies           3
    ##  7 John Bellany           3
    ##  8 John P Busby           3
    ##  9 Margaret Proudfoot     3
    ## 10 Ruth Illingworth       3
    ## # ℹ 146 more rows

``` r
uoe_art <- uoe_art %>%
 mutate(
    artist = enc2utf8(artist),
    artist = str_replace_all(artist, "Bu.*an", "Boris Bucan")
  )
```

``` r
uoe_art %>%
  count(artist, sort = TRUE)
```

    ## # A tibble: 156 × 2
    ##    artist                 n
    ##    <chr>              <int>
    ##  1 <NA>                  16
    ##  2 Unknown               12
    ##  3 Ann F Ward             4
    ##  4 Boris Boris Bucan      4
    ##  5 Kirkland Main          4
    ##  6 Emma Gillies           3
    ##  7 John Bellany           3
    ##  8 John P Busby           3
    ##  9 Margaret Proudfoot     3
    ## 10 Ruth Illingworth       3
    ## # ℹ 146 more rows
…
